{
    "_links": {
        "self": {
            "href": "http:\/\/default\/apidoc\/5?_format=hal_json"
        },
        "type": {
            "href": "http:\/\/drupal.org\/rest\/type\/apidoc\/apidoc"
        },
        "http:\/\/drupal.org\/rest\/relation\/apidoc\/apidoc\/spec": [
            {
                "href": "http:\/\/default\/sites\/default\/files\/apidoc_specs\/petstore.yaml"
            }
        ],
        "http:\/\/drupal.org\/rest\/relation\/apidoc\/apidoc\/field_categories": [
            {
                "href": "http:\/\/default\/apis\/data-append?_format=hal_json"
            },
            {
                "href": "http:\/\/default\/apis\/payment-transaction?_format=hal_json"
            }
        ],
        "http:\/\/drupal.org\/rest\/relation\/apidoc\/apidoc\/field_image": [
            {
                "href": "http:\/\/default\/media\/2\/edit?_format=hal_json"
            }
        ]
    },
    "id": [
        {
            "value": 5
        }
    ],
    "uuid": [
        {
            "value": "f6203776-2a93-466e-8d46-2ad078d7e216"
        }
    ],
    "langcode": [
        {
            "value": "en",
            "lang": "en"
        }
    ],
    "name": [
        {
            "value": "Communication"
        }
    ],
    "description": [
        {
            "value": "<p>Enables voice and messaging services for internal and external client lists.<\/p>\r\n",
            "format": "basic_html",
            "processed": "<p>Enables voice and messaging services for internal and external client lists.<\/p>"
        }
    ],
    "_embedded": {
        "http:\/\/drupal.org\/rest\/relation\/apidoc\/apidoc\/spec": [
            {
                "_links": {
                    "self": {
                        "href": "http:\/\/default\/sites\/default\/files\/apidoc_specs\/petstore.yaml"
                    },
                    "type": {
                        "href": "http:\/\/drupal.org\/rest\/type\/file\/file"
                    }
                },
                "uuid": [
                    {
                        "value": "0e1ac7bf-a77d-42c8-a6af-9026901081f7"
                    }
                ]
            }
        ],
        "http:\/\/drupal.org\/rest\/relation\/apidoc\/apidoc\/field_categories": [
            {
                "_links": {
                    "self": {
                        "href": "http:\/\/default\/apis\/data-append?_format=hal_json"
                    },
                    "type": {
                        "href": "http:\/\/drupal.org\/rest\/type\/taxonomy_term\/api_category"
                    }
                },
                "uuid": [
                    {
                        "value": "a63cae7c-c969-487a-a6f5-6a66a045c447"
                    }
                ]
            },
            {
                "_links": {
                    "self": {
                        "href": "http:\/\/default\/apis\/payment-transaction?_format=hal_json"
                    },
                    "type": {
                        "href": "http:\/\/drupal.org\/rest\/type\/taxonomy_term\/api_category"
                    }
                },
                "uuid": [
                    {
                        "value": "a09a32c1-fa1f-403b-888c-e02616998419"
                    }
                ]
            }
        ],
        "http:\/\/drupal.org\/rest\/relation\/apidoc\/apidoc\/field_image": [
            {
                "_links": {
                    "self": {
                        "href": "http:\/\/default\/media\/2\/edit?_format=hal_json"
                    },
                    "type": {
                        "href": "http:\/\/drupal.org\/rest\/type\/media\/image"
                    }
                },
                "uuid": [
                    {
                        "value": "f254c054-c4a1-46ff-80c2-6eff444ce5bd"
                    }
                ]
            }
        ]
    },
    "status": [
        {
            "value": true
        }
    ],
    "created": [
        {
            "value": "2019-03-29T12:31:52+00:00",
            "format": "Y-m-d\\TH:i:sP"
        }
    ],
    "changed": [
        {
            "value": "2019-03-29T15:32:07+00:00",
            "format": "Y-m-d\\TH:i:sP"
        }
    ],
    "default_langcode": [
        {
            "value": true,
            "lang": "en"
        }
    ]
}