{
    "_links": {
        "self": {
            "href": "http:\/\/default\/comment\/2?_format=hal_json"
        },
        "type": {
            "href": "http:\/\/drupal.org\/rest\/type\/comment\/comment_forum"
        },
        "http:\/\/drupal.org\/rest\/relation\/comment\/comment_forum\/uid": [
            {
                "href": "http:\/\/default\/user\/1?_format=hal_json",
                "lang": "en"
            }
        ],
        "http:\/\/drupal.org\/rest\/relation\/comment\/comment_forum\/entity_id": [
            {
                "href": "http:\/\/default\/forum\/security-tokens-documentation?_format=hal_json"
            }
        ]
    },
    "cid": [
        {
            "value": 2
        }
    ],
    "uuid": [
        {
            "value": "0e75f664-a915-487a-a9f8-439d7a148b19"
        }
    ],
    "langcode": [
        {
            "value": "en",
            "lang": "en"
        }
    ],
    "comment_type": [
        {
            "target_id": "comment_forum"
        }
    ],
    "status": [
        {
            "value": true,
            "lang": "en"
        }
    ],
    "_embedded": {
        "http:\/\/drupal.org\/rest\/relation\/comment\/comment_forum\/uid": [
            {
                "_links": {
                    "self": {
                        "href": "http:\/\/default\/user\/1?_format=hal_json"
                    },
                    "type": {
                        "href": "http:\/\/drupal.org\/rest\/type\/user\/user"
                    }
                },
                "uuid": [
                    {
                        "value": "6eb64048-db73-41c5-b8bb-ac8e908dae13"
                    }
                ],
                "lang": "en"
            }
        ],
        "http:\/\/drupal.org\/rest\/relation\/comment\/comment_forum\/entity_id": [
            {
                "_links": {
                    "self": {
                        "href": "http:\/\/default\/forum\/security-tokens-documentation?_format=hal_json"
                    },
                    "type": {
                        "href": "http:\/\/drupal.org\/rest\/type\/node\/forum"
                    }
                },
                "uuid": [
                    {
                        "value": "08dd5a22-1712-41b2-8afb-3623b83d9a74"
                    }
                ]
            }
        ]
    },
    "subject": [
        {
            "value": "In tristique varius dapibus\u2026",
            "lang": "en"
        }
    ],
    "created": [
        {
            "value": "2019-04-03T19:10:55+00:00",
            "lang": "en",
            "format": "Y-m-d\\TH:i:sP"
        }
    ],
    "changed": [
        {
            "value": "2019-04-03T19:10:55+00:00",
            "lang": "en",
            "format": "Y-m-d\\TH:i:sP"
        }
    ],
    "thread": [
        {
            "value": "01\/"
        }
    ],
    "entity_type": [
        {
            "value": "node"
        }
    ],
    "field_name": [
        {
            "value": "comment_forum"
        }
    ],
    "default_langcode": [
        {
            "value": true,
            "lang": "en"
        }
    ],
    "comment_body": [
        {
            "value": "<p>In tristique varius dapibus. Vestibulum ante ipsum primis in faucibus orci luctus et ultrices posuere cubilia Curae; Quisque eget erat risus. Phasellus iaculis orci id erat porttitor, quis tristique turpis cursus.<\/p>\r\n",
            "format": "basic_html",
            "processed": "<p>In tristique varius dapibus. Vestibulum ante ipsum primis in faucibus orci luctus et ultrices posuere cubilia Curae; Quisque eget erat risus. Phasellus iaculis orci id erat porttitor, quis tristique turpis cursus.<\/p>",
            "lang": "en"
        }
    ]
}