{
    "_links": {
        "self": {
            "href": "http:\/\/default\/sites\/default\/files\/default_images\/profile-default.jpg"
        },
        "type": {
            "href": "http:\/\/drupal.org\/rest\/type\/file\/file"
        },
        "http:\/\/drupal.org\/rest\/relation\/file\/file\/uid": [
            {
                "href": "http:\/\/default\/user\/1?_format=hal_json"
            }
        ]
    },
    "fid": [
        {
            "value": 16
        }
    ],
    "uuid": [
        {
            "value": "07ffc23c-29a7-4ffb-8322-418f220ccec8"
        }
    ],
    "langcode": [
        {
            "value": "en"
        }
    ],
    "_embedded": {
        "http:\/\/drupal.org\/rest\/relation\/file\/file\/uid": [
            {
                "_links": {
                    "self": {
                        "href": "http:\/\/default\/user\/1?_format=hal_json"
                    },
                    "type": {
                        "href": "http:\/\/drupal.org\/rest\/type\/user\/user"
                    }
                },
                "uuid": [
                    {
                        "value": "6eb64048-db73-41c5-b8bb-ac8e908dae13"
                    }
                ]
            }
        ]
    },
    "filename": [
        {
            "value": "profile-default.jpg"
        }
    ],
    "uri": [
        {
            "value": "public:\/\/default_images\/profile-default.jpg",
            "url": "\/sites\/default\/files\/default_images\/profile-default.jpg"
        }
    ],
    "filemime": [
        {
            "value": "image\/jpeg"
        }
    ],
    "filesize": [
        {
            "value": 12723
        }
    ],
    "status": [
        {
            "value": true
        }
    ],
    "created": [
        {
            "value": "2019-04-03T16:43:47+00:00",
            "format": "Y-m-d\\TH:i:sP"
        }
    ],
    "changed": [
        {
            "value": "2019-04-03T16:43:49+00:00",
            "format": "Y-m-d\\TH:i:sP"
        }
    ]
}