{
    "_links": {
        "self": {
            "href": "http:\/\/default\/sites\/default\/files\/aditya-vyas-1392552-unsplash.jpg"
        },
        "type": {
            "href": "http:\/\/drupal.org\/rest\/type\/file\/file"
        },
        "http:\/\/drupal.org\/rest\/relation\/file\/file\/uid": [
            {
                "href": "http:\/\/default\/user\/1?_format=hal_json"
            }
        ]
    },
    "fid": [
        {
            "value": 7
        }
    ],
    "uuid": [
        {
            "value": "08759418-466d-4ab8-bcb6-0fee31849e2b"
        }
    ],
    "langcode": [
        {
            "value": "en"
        }
    ],
    "_embedded": {
        "http:\/\/drupal.org\/rest\/relation\/file\/file\/uid": [
            {
                "_links": {
                    "self": {
                        "href": "http:\/\/default\/user\/1?_format=hal_json"
                    },
                    "type": {
                        "href": "http:\/\/drupal.org\/rest\/type\/user\/user"
                    }
                },
                "uuid": [
                    {
                        "value": "6eb64048-db73-41c5-b8bb-ac8e908dae13"
                    }
                ]
            }
        ]
    },
    "filename": [
        {
            "value": "aditya-vyas-1392552-unsplash.jpg"
        }
    ],
    "uri": [
        {
            "value": "public:\/\/aditya-vyas-1392552-unsplash.jpg",
            "url": "\/sites\/default\/files\/aditya-vyas-1392552-unsplash.jpg"
        }
    ],
    "filemime": [
        {
            "value": "image\/jpeg"
        }
    ],
    "filesize": [
        {
            "value": 2654807
        }
    ],
    "status": [
        {
            "value": true
        }
    ],
    "created": [
        {
            "value": "2019-03-15T18:59:44+00:00",
            "format": "Y-m-d\\TH:i:sP"
        }
    ],
    "changed": [
        {
            "value": "2019-03-15T18:59:49+00:00",
            "format": "Y-m-d\\TH:i:sP"
        }
    ]
}